<?xml version="1.0" encoding="UTF-8" standalone="no"?>
<svg
   xmlns:dc="http://purl.org/dc/elements/1.1/"
   xmlns:cc="http://creativecommons.org/ns#"
   xmlns:rdf="http://www.w3.org/1999/02/22-rdf-syntax-ns#"
   xmlns:svg="http://www.w3.org/2000/svg"
   xmlns="http://www.w3.org/2000/svg"
   xmlns:sodipodi="http://sodipodi.sourceforge.net/DTD/sodipodi-0.dtd"
   xmlns:inkscape="http://www.inkscape.org/namespaces/inkscape"
   viewBox="0 0 512 512"
   version="1.1"
   id="svg4"
   sodipodi:docname="tempo.svg"
   inkscape:version="0.92.4 5da689c313, 2019-01-14">
  <metadata
     id="metadata10">
    <rdf:RDF>
      <cc:Work
         rdf:about="">
        <dc:format>image/svg+xml</dc:format>
        <dc:type
           rdf:resource="http://purl.org/dc/dcmitype/StillImage" />
      </cc:Work>
    </rdf:RDF>
  </metadata>
  <defs
     id="defs8" />
  <sodipodi:namedview
     pagecolor="#ffffff"
     bordercolor="#666666"
     borderopacity="1"
     objecttolerance="10"
     gridtolerance="10"
     guidetolerance="10"
     inkscape:pageopacity="0"
     inkscape:pageshadow="2"
     inkscape:window-width="1920"
     inkscape:window-height="1032"
     id="namedview6"
     showgrid="false"
     inkscape:zoom="1.3037281"
     inkscape:cx="257.15342"
     inkscape:cy="272.965"
     inkscape:window-x="0"
     inkscape:window-y="0"
     inkscape:window-maximized="1"
     inkscape:current-layer="svg4" />
  <path
     d="m 345.5,260.9 c -230.33333,167.4 -115.16667,83.7 0,0 z M 309,91.24 l 9.5,48.96 -10.7,2.1 c 2,17.2 1,40.1 -4.4,61.8 -3.1,12.8 -7.9,25.2 -15.1,35.3 -1.7,2.4 -3.7,4.7 -5.7,6.9 2.7,1.1 5.3,2.5 7.8,4.1 10.5,6.6 19.5,16.2 27.2,26.9 13.2,18 22.7,38.8 27.4,55.4 l 10.6,-2.1 9.7,48.9 -161.7,32.3 -7.8,-40.2 -1.7,-8.8 10.7,-2.1 c -2,-17.2 -1,-40.1 4.4,-61.8 3.1,-12.8 7.9,-25.2 15.1,-35.3 1.7,-2.4 3.6,-4.7 5.6,-6.8 -2.7,-1.2 -5.2,-2.6 -7.7,-4.2 -10.5,-6.6 -19.5,-16.2 -27.3,-26.9 -13.1,-18 -22.6,-38.8 -27.3,-55.4 l -10.7,2.1 -7.8,-40.1 -1.8,-8.8 z m -14.2,21.16 -126.3,25.3 2.6,13.5 126.4,-25.2 z m -4.9,33.4 -104.4,20.9 c 4.3,14 12.7,33 24,48.4 6.8,9.4 14.6,17.4 22.3,22.3 4.7,2.9 9.2,4.8 13.7,5.5 l 4.1,20.7 c -4,2.4 -7.4,5.8 -10.6,10.4 -5.4,7.5 -9.6,17.9 -12.4,29.2 -4.6,18.6 -5.2,39.4 -3.9,54 l 104.4,-20.9 c -4.3,-14 -12.7,-33 -24,-48.4 -6.8,-9.4 -14.6,-17.4 -22.3,-22.3 -4.7,-3 -9.2,-4.8 -13.7,-5.5 L 263,239.4 c 4,-2.4 7.4,-5.8 10.6,-10.4 5.4,-7.5 9.5,-17.9 12.4,-29.2 4.6,-18.6 5.1,-39.4 3.9,-54 z m 51.6,206 -126.4,25.2 2.7,13.6 126.3,-25.3 z"
     id="path2"
     style="fill:#000000"
     inkscape:connector-curvature="0"
     sodipodi:nodetypes="cccccccccccccccccccccccccccccccccccccccccccccccccccccc" />
</svg>
